SingleCyclerProcessor/singlecycle.vcd
$date
	Tue Aug  2 14:44:07 2022
$end
$version
	Icarus Verilog
$end
$timescale
	1ps
$end
$scope module SingleCycleProcTest_v $end
$var wire 64 ! dMemOut [63:0] $end
$var wire 64 " currentPC [63:0] $end
$var reg 1 # CLK $end
$var reg 1 $ Reset_L $end
$var reg 8 % passed [7:0] $end
$var reg 64 & startPC [63:0] $end
$var reg 16 ' watchdog [15:0] $end
$scope module uut $end
$var wire 1 # CLK $end
$var wire 1 $ resetl $end
$var wire 64 ( startpc [63:0] $end
$var wire 1 ) zero $end
$var wire 1 * uncond_branch $end
$var wire 3 + signop [2:0] $end
$var wire 5 , rn [4:0] $end
$var wire 5 - rm [4:0] $end
$var wire 1 . regwrite $end
$var wire 64 / regoutB [63:0] $end
$var wire 64 0 regoutA [63:0] $end
$var wire 1 1 reg2loc $end
$var wire 5 2 rd [4:0] $end
$var wire 11 3 opcode [10:0] $end
$var wire 64 4 nextpc [63:0] $end
$var wire 1 5 memwrite $end
$var wire 1 6 memread $end
$var wire 1 7 mem2reg $end
$var wire 32 8 instruction [31:0] $end
$var wire 26 9 imm26 [25:0] $end
$var wire 64 : extimm [63:0] $end
$var wire 64 ; dmemout [63:0] $end
$var wire 64 < d1mem [63:0] $end
$var wire 1 = branch $end
$var wire 1 > alusrc $end
$var wire 64 ? aluout [63:0] $end
$var wire 4 @ aluctrl [3:0] $end
$var wire 64 A ALU2ndInput [63:0] $end
$var reg 64 B currentpc [63:0] $end
$scope module ALUMAIN $end
$var wire 64 C BusB [63:0] $end
$var wire 1 ) Zero $end
$var wire 64 D BusA [63:0] $end
$var wire 4 E ALUCtrl [3:0] $end
$var reg 64 F BusW [63:0] $end
$upscope $end
$scope module DeezData $end
$var wire 64 G Address [63:0] $end
$var wire 1 # Clock $end
$var wire 64 H WriteData [63:0] $end
$var wire 1 5 MemoryWrite $end
$var wire 1 6 MemoryRead $end
$var reg 64 I ReadData [63:0] $end
$scope task initset $end
$var reg 64 J addr [63:0] $end
$var reg 64 K data [63:0] $end
$upscope $end
$upscope $end
$scope module NPCL $end
$var wire 1 ) ALUZero $end
$var wire 64 L CurrentPC [63:0] $end
$var wire 1 * Uncondbranch $end
$var wire 64 M SignExtImm64 [63:0] $end
$var wire 1 = Branch $end
$var reg 1 N MuxSignal $end
$var reg 64 O NextPC [63:0] $end
$upscope $end
$scope module RF $end
$var wire 64 P BusA [63:0] $end
$var wire 64 Q BusB [63:0] $end
$var wire 64 R BusW [63:0] $end
$var wire 1 # Clk $end
$var wire 5 S RA [4:0] $end
$var wire 5 T RB [4:0] $end
$var wire 5 U RW [4:0] $end
$var wire 1 . RegWr $end
$upscope $end
$scope module SE $end
$var wire 26 V Imm16 [25:0] $end
$var wire 3 W Ctrl [2:0] $end
$var reg 64 X BusImm [63:0] $end
$upscope $end
$scope module control $end
$var wire 11 Y opcode [10:0] $end
$var reg 4 Z aluop [3:0] $end
$var reg 1 > alusrc $end
$var reg 1 = branch $end
$var reg 1 7 mem2reg $end
$var reg 1 6 memread $end
$var reg 1 5 memwrite $end
$var reg 1 1 reg2loc $end
$var reg 1 . regwrite $end
$var reg 3 [ signop [2:0] $end
$var reg 1 * uncond_branch $end
$upscope $end
$scope module imem $end
$var wire 64 \ Address [63:0] $end
$var reg 32 ] Data [31:0] $end
$upscope $end
$upscope $end
$scope task allPassed $end
$var reg 8 ^ numTests [7:0] $end
$var reg 8 _ passed [7:0] $end
$upscope $end
$scope task passTest $end
$var reg 64 ` actualOut [63:0] $end
$var reg 64 a expectedOut [63:0] $end
$var reg 8 b passed [7:0] $end
$var reg 257 c testType [256:0] $end
$upscope $end
$upscope $end
$enddefinitions $end
#0
$dumpvars
bx c
bx b
bx a
bx `
bx _
bx ^
bx ]
bx \
bx [
bx Z
bx Y
bx X
bx W
bx V
bx U
bx T
bx S
bx R
bx Q
bx P
bx O
xN
bx M
bx L
b0 K
b100000 J
bx I
bx H
bx G
bx F
bx E
bx D
bx C
bx B
bx A
bx @
bx ?
x>
x=
bx <
bx ;
bx :
bx 9
bx 8
x7
x6
x5
bx 4
bx 3
bx 2
x1
bx 0
bx /
x.
bx -
bx ,
bx +
x*
0)
b0 (
b0 '
b0 &
b0 %
1$
0#
bx "
bx !
$end
#60000
1#
#120000
b1 '
0#
#121000
0$
#180000
1#
#240000
b0 A
b0 C
b0 :
b0 M
b0 X
b100 4
b100 O
0N
b1 +
b1 W
b1 [
b10 @
b10 E
b10 Z
0*
0=
05
16
1.
17
1>
b0x00x ,
b0x00x T
1)
b0 ?
b0 F
b0 G
b10000000000001111101001 9
b10000000000001111101001 V
b11111000010 3
b11111000010 Y
b0 0
b0 D
b0 P
b11111 -
b11111 S
b1001 2
b1001 U
b11111000010000000000001111101001 8
b11111000010000000000001111101001 ]
b0 "
b0 B
b0 L
b0 \
b10 '
0#
#241000
1$
#300000
b1 !
b1 ;
b1 R
b1 <
b1 I
1#
#360000
0)
b1000 ?
b1000 F
b1000 G
b1000 A
b1000 C
b1000 :
b1000 M
b1000 X
b0x0x0 ,
b0x0x0 T
b10000001000001111101010 9
b10000001000001111101010 V
b1010 2
b1010 U
b1000 4
b1000 O
b11111000010000001000001111101010 8
b11111000010000001000001111101010 ]
b100 "
b100 B
b100 L
b100 \
b11 '
0#
#420000
b1010 !
b1010 ;
b1010 R
b1010 <
b1010 I
1#
#480000
b10000 ?
b10000 F
b10000 G
b10000 A
b10000 C
b10000 :
b10000 M
b10000 X
b0x0x1 ,
b0x0x1 T
b10000010000001111101011 9
b10000010000001111101011 V
b1011 2
b1011 U
b1100 4
b1100 O
b11111000010000010000001111101011 8
b11111000010000010000001111101011 ]
b1000 "
b1000 B
b1000 L
b1000 \
b100 '
0#
#540000
b101 !
b101 ;
b101 R
b101 <
b101 I
1#
#600000
b11000 ?
b11000 F
b11000 G
b11000 A
b11000 C
b11000 :
b11000 M
b11000 X
b0xx0x ,
b0xx0x T
b10000011000001111101100 9
b10000011000001111101100 V
b1100 2
b1100 U
b10000 4
b10000 O
b11111000010000011000001111101100 8
b11111000010000011000001111101100 ]
b1100 "
b1100 B
b1100 L
b1100 \
b101 '
0#
#660000
b111111111011111010100111110111101010110110111110111011111111 !
b111111111011111010100111110111101010110110111110111011111111 ;
b111111111011111010100111110111101010110110111110111011111111 R
b111111111011111010100111110111101010110110111110111011111111 <
b111111111011111010100111110111101010110110111110111011111111 I
1#
#720000
b100000 ?
b100000 F
b100000 G
b100000 A
b100000 C
b100000 :
b100000 M
b100000 X
b0xxxx ,
b0xxxx T
b10000100000001111101101 9
b10000100000001111101101 V
b1101 2
b1101 U
b10100 4
b10100 O
b11111000010000100000001111101101 8
b11111000010000100000001111101101 ]
b10000 "
b10000 B
b10000 L
b10000 \
b110 '
0#
#780000
b0 !
b0 ;
b0 R
b0 <
b0 I
1#
#840000
b1111 !
b1111 ;
b1111 R
b101 /
b101 H
b101 Q
bx +
bx W
bx [
b1 @
b1 E
b1 Z
06
07
0>
01
b101 A
b101 C
b10110000 :
b10110000 M
b10110000 X
b1011 ,
b1011 T
b1111 ?
b1111 F
b1111 G
b10000010110000000101001010 9
b10000010110000000101001010 V
b10101010000 3
b10101010000 Y
b1010 0
b1010 D
b1010 P
b1010 -
b1010 S
b1010 2
b1010 U
b11000 4
b11000 O
b10101010000010110000000101001010 8
b10101010000010110000000101001010 ]
b10100 "
b10100 B
b10100 L
b10100 \
b111 '
0#
#900000
1#
#960000
b0 @
b0 E
b0 Z
b1111 A
b1111 C
b1111 !
b1111 ;
b1111 R
b1111 /
b1111 H
b1111 Q
b1010 ,
b1010 T
b1111 ?
b1111 F
b1111 G
b10000010100000000110001100 9
b10000010100000000110001100 V
b10001010000 3
b10001010000 Y
b1100 -
b1100 S
b1100 2
b1100 U
b11100 4
b11100 O
b10001010000010100000000110001100 8
b10001010000010100000000110001100 ]
b111111111011111010100111110111101010110110111110111011111111 0
b111111111011111010100111110111101010110110111110111011111111 D
b111111111011111010100111110111101010110110111110111011111111 P
b11000 "
b11000 B
b11000 L
b11000 \
b1000 '
0#
#1020000
1#
#1080000
b100 :
b100 M
b100 X
0N
b11 +
b11 W
b11 [
b111 @
b111 E
b111 Z
1=
0.
x7
11
b1111 A
b1111 C
b0xxxx !
b0xxxx ;
b0xxxx R
b1111 /
b1111 H
b1111 Q
b1100 ,
b1100 T
0)
b1111 ?
b1111 F
b1111 G
b10001100 9
b10001100 V
b10110100000 3
b10110100000 Y
b100 -
b100 S
b100000 4
b100000 O
b10110100000000000000000010001100 8
b10110100000000000000000010001100 ]
b11100 "
b11100 B
b11100 L
b11100 \
b0 0
b0 D
b0 P
b1001 '
0#
#1140000
1#
#1200000
bx +
bx W
bx [
b10 @
b10 E
b10 Z
0=
1.
07
01
0N
b1 !
b1 ;
b1 R
0)
b1 ?
b1 F
b1 G
b1 A
b1 C
b100100000001101 :
b100100000001101 M
b100100000001101 X
b1 /
b1 H
b1 Q
b1001 ,
b1001 T
b11000010010000000110101101 9
b11000010010000000110101101 V
b10001011000 3
b10001011000 Y
b1101 -
b1101 S
b1101 2
b1101 U
b100100 4
b100100 O
b10001011000010010000000110101101 8
b10001011000010010000000110101101 ]
b100000 "
b100000 B
b100000 L
b100000 \
b1010 '
0#
#1260000
1#
#1320000
b110 @
b110 E
b110 Z
b11000010010000000110001100 9
b11000010010000000110001100 V
b11001011000 3
b11001011000 Y
b1100 -
b1100 S
b1100 2
b1100 U
b1110 !
b1110 ;
b1110 R
b101000 4
b101000 O
b11001011000010010000000110001100 8
b11001011000010010000000110001100 ]
b1110 ?
b1110 F
b1110 G
b100100 "
b100100 B
b100100 L
b100100 \
b1111 0
b1111 D
b1111 P
b1011 '
0#
#1380000
1#
#1440000
b1111111111111111111111111111111111111111111111111111111111111101 :
b1111111111111111111111111111111111111111111111111111111111111101 M
b1111111111111111111111111111111111111111111111111111111111111101 X
1N
b10 +
b10 W
b10 [
bx @
bx E
bx Z
1*
0.
x7
x>
x1
1)
bx A
bx C
bx /
bx H
bx Q
b111x1 ,
b111x1 T
b0 !
b0 ;
b0 R
b11111111111111111111111101 9
b11111111111111111111111101 V
b10111111 3
b10111111 Y
b11111 -
b11111 S
b11101 2
b11101 U
b0 ?
b0 F
b0 G
b11100 4
b11100 O
b10111111111111111111111111101 8
b10111111111111111111111111101 ]
b0 0
b0 D
b0 P
b101000 "
b101000 B
b101000 L
b101000 \
b1100 '
0#
#1500000
1#
#1560000
0N
b0xxx0 !
b0xxx0 ;
b0xxx0 R
0)
b1110 ?
b1110 F
b1110 G
b1110 A
b1110 C
b1110 /
b1110 H
b1110 Q
b11 +
b11 W
b11 [
b111 @
b111 E
b111 Z
0*
1=
0>
11
b100 :
b100 M
b100 X
b1100 ,
b1100 T
b10001100 9
b10001100 V
b10110100000 3
b10110100000 Y
b100 -
b100 S
b1100 2
b1100 U
b100000 4
b100000 O
b10110100000000000000000010001100 8
b10110100000000000000000010001100 ]
b11100 "
b11100 B
b11100 L
b11100 \
b1101 '
0#
#1620000
1#
#1680000
bx +
bx W
bx [
b10 @
b10 E
b10 Z
0=
1.
07
01
b10 !
b10 ;
b10 R
b10 ?
b10 F
b10 G
b1 A
b1 C
b100100000001101 :
b100100000001101 M
b100100000001101 X
b1 /
b1 H
b1 Q
b1001 ,
b1001 T
b11000010010000000110101101 9
b11000010010000000110101101 V
b10001011000 3
b10001011000 Y
b1 0
b1 D
b1 P
b1101 -
b1101 S
b1101 2
b1101 U
b100100 4
b100100 O
b10001011000010010000000110101101 8
b10001011000010010000000110101101 ]
b100000 "
b100000 B
b100000 L
b100000 \
b1110 '
0#
#1740000
1#
#1800000
b110 @
b110 E
b110 Z
b11000010010000000110001100 9
b11000010010000000110001100 V
b11001011000 3
b11001011000 Y
b1100 -
b1100 S
b1100 2
b1100 U
b1101 !
b1101 ;
b1101 R
b101000 4
b101000 O
b11001011000010010000000110001100 8
b11001011000010010000000110001100 ]
b1101 ?
b1101 F
b1101 G
b100100 "
b100100 B
b100100 L
b100100 \
b1110 0
b1110 D
b1110 P
b1111 '
0#
#1860000
1#
#1920000
b1111111111111111111111111111111111111111111111111111111111111101 :
b1111111111111111111111111111111111111111111111111111111111111101 M
b1111111111111111111111111111111111111111111111111111111111111101 X
1N
b10 +
b10 W
b10 [
bx @
bx E
bx Z
1*
0.
x7
x>
x1
1)
bx A
bx C
bx /
bx H
bx Q
b111x1 ,
b111x1 T
b0 !
b0 ;
b0 R
b11111111111111111111111101 9
b11111111111111111111111101 V
b10111111 3
b10111111 Y
b11111 -
b11111 S
b11101 2
b11101 U
b0 ?
b0 F
b0 G
b11100 4
b11100 O
b10111111111111111111111111101 8
b10111111111111111111111111101 ]
b0 0
b0 D
b0 P
b101000 "
b101000 B
b101000 L
b101000 \
b10000 '
0#
#1980000
1#
#2040000
0N
b0xx0x !
b0xx0x ;
b0xx0x R
0)
b1101 ?
b1101 F
b1101 G
b1101 A
b1101 C
b1101 /
b1101 H
b1101 Q
b11 +
b11 W
b11 [
b111 @
b111 E
b111 Z
0*
1=
0>
11
b100 :
b100 M
b100 X
b1100 ,
b1100 T
b10001100 9
b10001100 V
b10110100000 3
b10110100000 Y
b100 -
b100 S
b1100 2
b1100 U
b100000 4
b100000 O
b10110100000000000000000010001100 8
b10110100000000000000000010001100 ]
b11100 "
b11100 B
b11100 L
b11100 \
b10001 '
0#
#2100000
1#
#2160000
bx +
bx W
bx [
b10 @
b10 E
b10 Z
0=
1.
07
01
b11 !
b11 ;
b11 R
b11 ?
b11 F
b11 G
b1 A
b1 C
b100100000001101 :
b100100000001101 M
b100100000001101 X
b1 /
b1 H
b1 Q
b1001 ,
b1001 T
b11000010010000000110101101 9
b11000010010000000110101101 V
b10001011000 3
b10001011000 Y
b10 0
b10 D
b10 P
b1101 -
b1101 S
b1101 2
b1101 U
b100100 4
b100100 O
b10001011000010010000000110101101 8
b10001011000010010000000110101101 ]
b100000 "
b100000 B
b100000 L
b100000 \
b10010 '
0#
#2220000
1#
#2280000
b110 @
b110 E
b110 Z
b11000010010000000110001100 9
b11000010010000000110001100 V
b11001011000 3
b11001011000 Y
b1100 -
b1100 S
b1100 2
b1100 U
b1100 !
b1100 ;
b1100 R
b101000 4
b101000 O
b11001011000010010000000110001100 8
b11001011000010010000000110001100 ]
b1100 ?
b1100 F
b1100 G
b100100 "
b100100 B
b100100 L
b100100 \
b1101 0
b1101 D
b1101 P
b10011 '
0#
#2340000
1#
#2400000
b1111111111111111111111111111111111111111111111111111111111111101 :
b1111111111111111111111111111111111111111111111111111111111111101 M
b1111111111111111111111111111111111111111111111111111111111111101 X
1N
b10 +
b10 W
b10 [
bx @
bx E
bx Z
1*
0.
x7
x>
x1
1)
bx A
bx C
bx /
bx H
bx Q
b111x1 ,
b111x1 T
b0 !
b0 ;
b0 R
b11111111111111111111111101 9
b11111111111111111111111101 V
b10111111 3
b10111111 Y
b11111 -
b11111 S
b11101 2
b11101 U
b0 ?
b0 F
b0 G
b11100 4
b11100 O
b10111111111111111111111111101 8
b10111111111111111111111111101 ]
b0 0
b0 D
b0 P
b101000 "
b101000 B
b101000 L
b101000 \
b10100 '
0#
#2460000
1#
#2520000
0N
b0xx00 !
b0xx00 ;
b0xx00 R
0)
b1100 ?
b1100 F
b1100 G
b1100 A
b1100 C
b1100 /
b1100 H
b1100 Q
b11 +
b11 W
b11 [
b111 @
b111 E
b111 Z
0*
1=
0>
11
b100 :
b100 M
b100 X
b1100 ,
b1100 T
b10001100 9
b10001100 V
b10110100000 3
b10110100000 Y
b100 -
b100 S
b1100 2
b1100 U
b100000 4
b100000 O
b10110100000000000000000010001100 8
b10110100000000000000000010001100 ]
b11100 "
b11100 B
b11100 L
b11100 \
b10101 '
0#
#2580000
1#
#2640000
bx +
bx W
bx [
b10 @
b10 E
b10 Z
0=
1.
07
01
b100 !
b100 ;
b100 R
b100 ?
b100 F
b100 G
b1 A
b1 C
b100100000001101 :
b100100000001101 M
b100100000001101 X
b1 /
b1 H
b1 Q
b1001 ,
b1001 T
b11000010010000000110101101 9
b11000010010000000110101101 V
b10001011000 3
b10001011000 Y
b11 0
b11 D
b11 P
b1101 -
b1101 S
b1101 2
b1101 U
b100100 4
b100100 O
b10001011000010010000000110101101 8
b10001011000010010000000110101101 ]
b100000 "
b100000 B
b100000 L
b100000 \
b10110 '
0#
#2700000
1#
#2760000
b110 @
b110 E
b110 Z
b11000010010000000110001100 9
b11000010010000000110001100 V
b11001011000 3
b11001011000 Y
b1100 -
b1100 S
b1100 2
b1100 U
b1011 !
b1011 ;
b1011 R
b101000 4
b101000 O
b11001011000010010000000110001100 8
b11001011000010010000000110001100 ]
b1011 ?
b1011 F
b1011 G
b100100 "
b100100 B
b100100 L
b100100 \
b1100 0
b1100 D
b1100 P
b10111 '
0#
#2820000
1#
#2880000
b1111111111111111111111111111111111111111111111111111111111111101 :
b1111111111111111111111111111111111111111111111111111111111111101 M
b1111111111111111111111111111111111111111111111111111111111111101 X
1N
b10 +
b10 W
b10 [
bx @
bx E
bx Z
1*
0.
x7
x>
x1
1)
bx A
bx C
bx /
bx H
bx Q
b111x1 ,
b111x1 T
b0 !
b0 ;
b0 R
b11111111111111111111111101 9
b11111111111111111111111101 V
b10111111 3
b10111111 Y
b11111 -
b11111 S
b11101 2
b11101 U
b0 ?
b0 F
b0 G
b11100 4
b11100 O
b10111111111111111111111111101 8
b10111111111111111111111111101 ]
b0 0
b0 D
b0 P
b101000 "
b101000 B
b101000 L
b101000 \
b11000 '
0#
#2940000
1#
#3000000
0N
b0x0xx !
b0x0xx ;
b0x0xx R
0)
b1011 ?
b1011 F
b1011 G
b1011 A
b1011 C
b1011 /
b1011 H
b1011 Q
b11 +
b11 W
b11 [
b111 @
b111 E
b111 Z
0*
1=
0>
11
b100 :
b100 M
b100 X
b1100 ,
b1100 T
b10001100 9
b10001100 V
b10110100000 3
b10110100000 Y
b100 -
b100 S
b1100 2
b1100 U
b100000 4
b100000 O
b10110100000000000000000010001100 8
b10110100000000000000000010001100 ]
b11100 "
b11100 B
b11100 L
b11100 \
b11001 '
0#
#3060000
1#
#3120000
bx +
bx W
bx [
b10 @
b10 E
b10 Z
0=
1.
07
01
b101 !
b101 ;
b101 R
b101 ?
b101 F
b101 G
b1 A
b1 C
b100100000001101 :
b100100000001101 M
b100100000001101 X
b1 /
b1 H
b1 Q
b1001 ,
b1001 T
b11000010010000000110101101 9
b11000010010000000110101101 V
b10001011000 3
b10001011000 Y
b100 0
b100 D
b100 P
b1101 -
b1101 S
b1101 2
b1101 U
b100100 4
b100100 O
b10001011000010010000000110101101 8
b10001011000010010000000110101101 ]
b100000 "
b100000 B
b100000 L
b100000 \
b11010 '
0#
#3180000
1#
#3240000
b110 @
b110 E
b110 Z
b11000010010000000110001100 9
b11000010010000000110001100 V
b11001011000 3
b11001011000 Y
b1100 -
b1100 S
b1100 2
b1100 U
b1010 !
b1010 ;
b1010 R
b101000 4
b101000 O
b11001011000010010000000110001100 8
b11001011000010010000000110001100 ]
b1010 ?
b1010 F
b1010 G
b100100 "
b100100 B
b100100 L
b100100 \
b1011 0
b1011 D
b1011 P
b11011 '
0#
#3300000
1#
#3360000
b1111111111111111111111111111111111111111111111111111111111111101 :
b1111111111111111111111111111111111111111111111111111111111111101 M
b1111111111111111111111111111111111111111111111111111111111111101 X
1N
b10 +
b10 W
b10 [
bx @
bx E
bx Z
1*
0.
x7
x>
x1
1)
bx A
bx C
bx /
bx H
bx Q
b111x1 ,
b111x1 T
b0 !
b0 ;
b0 R
b11111111111111111111111101 9
b11111111111111111111111101 V
b10111111 3
b10111111 Y
b11111 -
b11111 S
b11101 2
b11101 U
b0 ?
b0 F
b0 G
b11100 4
b11100 O
b10111111111111111111111111101 8
b10111111111111111111111111101 ]
b0 0
b0 D
b0 P
b101000 "
b101000 B
b101000 L
b101000 \
b11100 '
0#
#3420000
1#
#3480000
0N
b0x0x0 !
b0x0x0 ;
b0x0x0 R
0)
b1010 ?
b1010 F
b1010 G
b1010 A
b1010 C
b1010 /
b1010 H
b1010 Q
b11 +
b11 W
b11 [
b111 @
b111 E
b111 Z
0*
1=
0>
11
b100 :
b100 M
b100 X
b1100 ,
b1100 T
b10001100 9
b10001100 V
b10110100000 3
b10110100000 Y
b100 -
b100 S
b1100 2
b1100 U
b100000 4
b100000 O
b10110100000000000000000010001100 8
b10110100000000000000000010001100 ]
b11100 "
b11100 B
b11100 L
b11100 \
b11101 '
0#
#3540000
1#
#3600000
bx +
bx W
bx [
b10 @
b10 E
b10 Z
0=
1.
07
01
b110 !
b110 ;
b110 R
b110 ?
b110 F
b110 G
b1 A
b1 C
b100100000001101 :
b100100000001101 M
b100100000001101 X
b1 /
b1 H
b1 Q
b1001 ,
b1001 T
b11000010010000000110101101 9
b11000010010000000110101101 V
b10001011000 3
b10001011000 Y
b101 0
b101 D
b101 P
b1101 -
b1101 S
b1101 2
b1101 U
b100100 4
b100100 O
b10001011000010010000000110101101 8
b10001011000010010000000110101101 ]
b100000 "
b100000 B
b100000 L
b100000 \
b11110 '
0#
#3660000
1#
#3720000
b110 @
b110 E
b110 Z
b11000010010000000110001100 9
b11000010010000000110001100 V
b11001011000 3
b11001011000 Y
b1100 -
b1100 S
b1100 2
b1100 U
b1001 !
b1001 ;
b1001 R
b101000 4
b101000 O
b11001011000010010000000110001100 8
b11001011000010010000000110001100 ]
b1001 ?
b1001 F
b1001 G
b100100 "
b100100 B
b100100 L
b100100 \
b1010 0
b1010 D
b1010 P
b11111 '
0#
#3780000
1#
#3840000
b1111111111111111111111111111111111111111111111111111111111111101 :
b1111111111111111111111111111111111111111111111111111111111111101 M
b1111111111111111111111111111111111111111111111111111111111111101 X
1N
b10 +
b10 W
b10 [
bx @
bx E
bx Z
1*
0.
x7
x>
x1
1)
bx A
bx C
bx /
bx H
bx Q
b111x1 ,
b111x1 T
b0 !
b0 ;
b0 R
b11111111111111111111111101 9
b11111111111111111111111101 V
b10111111 3
b10111111 Y
b11111 -
b11111 S
b11101 2
b11101 U
b0 ?
b0 F
b0 G
b11100 4
b11100 O
b10111111111111111111111111101 8
b10111111111111111111111111101 ]
b0 0
b0 D
b0 P
b101000 "
b101000 B
b101000 L
b101000 \
b100000 '
0#
#3900000
1#
#3960000
0N
b0x00x !
b0x00x ;
b0x00x R
0)
b1001 ?
b1001 F
b1001 G
b1001 A
b1001 C
b1001 /
b1001 H
b1001 Q
b11 +
b11 W
b11 [
b111 @
b111 E
b111 Z
0*
1=
0>
11
b100 :
b100 M
b100 X
b1100 ,
b1100 T
b10001100 9
b10001100 V
b10110100000 3
b10110100000 Y
b100 -
b100 S
b1100 2
b1100 U
b100000 4
b100000 O
b10110100000000000000000010001100 8
b10110100000000000000000010001100 ]
b11100 "
b11100 B
b11100 L
b11100 \
b100001 '
0#
#4020000
1#
#4080000
bx +
bx W
bx [
b10 @
b10 E
b10 Z
0=
1.
07
01
b111 !
b111 ;
b111 R
b111 ?
b111 F
b111 G
b1 A
b1 C
b100100000001101 :
b100100000001101 M
b100100000001101 X
b1 /
b1 H
b1 Q
b1001 ,
b1001 T
b11000010010000000110101101 9
b11000010010000000110101101 V
b10001011000 3
b10001011000 Y
b110 0
b110 D
b110 P
b1101 -
b1101 S
b1101 2
b1101 U
b100100 4
b100100 O
b10001011000010010000000110101101 8
b10001011000010010000000110101101 ]
b100000 "
b100000 B
b100000 L
b100000 \
b100010 '
0#
#4140000
1#
#4200000
b110 @
b110 E
b110 Z
b11000010010000000110001100 9
b11000010010000000110001100 V
b11001011000 3
b11001011000 Y
b1100 -
b1100 S
b1100 2
b1100 U
b1000 !
b1000 ;
b1000 R
b101000 4
b101000 O
b11001011000010010000000110001100 8
b11001011000010010000000110001100 ]
b1000 ?
b1000 F
b1000 G
b100100 "
b100100 B
b100100 L
b100100 \
b1001 0
b1001 D
b1001 P
b100011 '
0#
#4260000
1#
#4320000
b1111111111111111111111111111111111111111111111111111111111111101 :
b1111111111111111111111111111111111111111111111111111111111111101 M
b1111111111111111111111111111111111111111111111111111111111111101 X
1N
b10 +
b10 W
b10 [
bx @
bx E
bx Z
1*
0.
x7
x>
x1
1)
bx A
bx C
bx /
bx H
bx Q
b111x1 ,
b111x1 T
b0 !
b0 ;
b0 R
b11111111111111111111111101 9
b11111111111111111111111101 V
b10111111 3
b10111111 Y
b11111 -
b11111 S
b11101 2
b11101 U
b0 ?
b0 F
b0 G
b11100 4
b11100 O
b10111111111111111111111111101 8
b10111111111111111111111111101 ]
b0 0
b0 D
b0 P
b101000 "
b101000 B
b101000 L
b101000 \
b100100 '
0#
#4380000
1#
#4440000
0N
b0x000 !
b0x000 ;
b0x000 R
0)
b1000 ?
b1000 F
b1000 G
b1000 A
b1000 C
b1000 /
b1000 H
b1000 Q
b11 +
b11 W
b11 [
b111 @
b111 E
b111 Z
0*
1=
0>
11
b100 :
b100 M
b100 X
b1100 ,
b1100 T
b10001100 9
b10001100 V
b10110100000 3
b10110100000 Y
b100 -
b100 S
b1100 2
b1100 U
b100000 4
b100000 O
b10110100000000000000000010001100 8
b10110100000000000000000010001100 ]
b11100 "
b11100 B
b11100 L
b11100 \
b100101 '
0#
#4500000
1#
#4560000
bx +
bx W
bx [
b10 @
b10 E
b10 Z
0=
1.
07
01
b1000 !
b1000 ;
b1000 R
b1000 ?
b1000 F
b1000 G
b1 A
b1 C
b100100000001101 :
b100100000001101 M
b100100000001101 X
b1 /
b1 H
b1 Q
b1001 ,
b1001 T
b11000010010000000110101101 9
b11000010010000000110101101 V
b10001011000 3
b10001011000 Y
b111 0
b111 D
b111 P
b1101 -
b1101 S
b1101 2
b1101 U
b100100 4
b100100 O
b10001011000010010000000110101101 8
b10001011000010010000000110101101 ]
b100000 "
b100000 B
b100000 L
b100000 \
b100110 '
0#
#4620000
1#
#4680000
b110 @
b110 E
b110 Z
b11000010010000000110001100 9
b11000010010000000110001100 V
b11001011000 3
b11001011000 Y
b1100 -
b1100 S
b1100 2
b1100 U
b111 !
b111 ;
b111 R
b101000 4
b101000 O
b11001011000010010000000110001100 8
b11001011000010010000000110001100 ]
b111 ?
b111 F
b111 G
b100100 "
b100100 B
b100100 L
b100100 \
b1000 0
b1000 D
b1000 P
b100111 '
0#
#4740000
1#
#4800000
b1111111111111111111111111111111111111111111111111111111111111101 :
b1111111111111111111111111111111111111111111111111111111111111101 M
b1111111111111111111111111111111111111111111111111111111111111101 X
1N
b10 +
b10 W
b10 [
bx @
bx E
bx Z
1*
0.
x7
x>
x1
1)
bx A
bx C
bx /
bx H
bx Q
b111x1 ,
b111x1 T
b0 !
b0 ;
b0 R
b11111111111111111111111101 9
b11111111111111111111111101 V
b10111111 3
b10111111 Y
b11111 -
b11111 S
b11101 2
b11101 U
b0 ?
b0 F
b0 G
b11100 4
b11100 O
b10111111111111111111111111101 8
b10111111111111111111111111101 ]
b0 0
b0 D
b0 P
b101000 "
b101000 B
b101000 L
b101000 \
b101000 '
0#
#4860000
1#
#4920000
0N
b0xxx !
b0xxx ;
b0xxx R
0)
b111 ?
b111 F
b111 G
b111 A
b111 C
b111 /
b111 H
b111 Q
b11 +
b11 W
b11 [
b111 @
b111 E
b111 Z
0*
1=
0>
11
b100 :
b100 M
b100 X
b1100 ,
b1100 T
b10001100 9
b10001100 V
b10110100000 3
b10110100000 Y
b100 -
b100 S
b1100 2
b1100 U
b100000 4
b100000 O
b10110100000000000000000010001100 8
b10110100000000000000000010001100 ]
b11100 "
b11100 B
b11100 L
b11100 \
b101001 '
0#
#4980000
1#
#5040000
bx +
bx W
bx [
b10 @
b10 E
b10 Z
0=
1.
07
01
b1001 !
b1001 ;
b1001 R
b1001 ?
b1001 F
b1001 G
b1 A
b1 C
b100100000001101 :
b100100000001101 M
b100100000001101 X
b1 /
b1 H
b1 Q
b1001 ,
b1001 T
b11000010010000000110101101 9
b11000010010000000110101101 V
b10001011000 3
b10001011000 Y
b1000 0
b1000 D
b1000 P
b1101 -
b1101 S
b1101 2
b1101 U
b100100 4
b100100 O
b10001011000010010000000110101101 8
b10001011000010010000000110101101 ]
b100000 "
b100000 B
b100000 L
b100000 \
b101010 '
0#
#5100000
1#
#5160000
b110 @
b110 E
b110 Z
b11000010010000000110001100 9
b11000010010000000110001100 V
b11001011000 3
b11001011000 Y
b1100 -
b1100 S
b1100 2
b1100 U
b110 !
b110 ;
b110 R
b101000 4
b101000 O
b11001011000010010000000110001100 8
b11001011000010010000000110001100 ]
b110 ?
b110 F
b110 G
b100100 "
b100100 B
b100100 L
b100100 \
b111 0
b111 D
b111 P
b101011 '
0#
#5220000
1#
#5280000
b1111111111111111111111111111111111111111111111111111111111111101 :
b1111111111111111111111111111111111111111111111111111111111111101 M
b1111111111111111111111111111111111111111111111111111111111111101 X
1N
b10 +
b10 W
b10 [
bx @
bx E
bx Z
1*
0.
x7
x>
x1
1)
bx A
bx C
bx /
bx H
bx Q
b111x1 ,
b111x1 T
b0 !
b0 ;
b0 R
b11111111111111111111111101 9
b11111111111111111111111101 V
b10111111 3
b10111111 Y
b11111 -
b11111 S
b11101 2
b11101 U
b0 ?
b0 F
b0 G
b11100 4
b11100 O
b10111111111111111111111111101 8
b10111111111111111111111111101 ]
b0 0
b0 D
b0 P
b101000 "
b101000 B
b101000 L
b101000 \
b101100 '
0#
#5340000
1#
